[
  {
    "id": 1,
    "perfil":"assets/images/avatar-1.jpg",
    "name": "Sortino",
    "correo": "Sortino@domain.com",
    "idEspecialidad": 1,
    "especialidad": "Medico General",
    "office": "New York",
    "age": 45,
    "telefono": "+447662552550",
    "date":"12/12/2016",
    "latitude": 4.710133,
    "longitude": -74.058531
  },
  {
    "id": 2,
    "perfil":"assets/images/avatar-2.jpg",
    "name": "Larry",
    "correo": "Larry@domain.com",
    "idEspecialidad": 2,
    "especialidad": "Pediatría",
    "office": "Singapore",
    "age": 25,
    "telefono": "+442566156222",
    "date":"6/10/2016",
    "latitude": 4.67814,
    "longitude": -74.051493
  },
  {
    "id": 3,
    "perfil":"assets/images/avatar-3.jpg",
    "name": "Jacob",
    "correo": "Jacob@domain.com",
    "idEspecialidad": 2,
    "especialidad": "Pediatría",
    "office": "London",
    "age": 45,
    "telefono": "+419996156222",
    "date":"11/09/2014",
    "latitude": 4.74803,
    "longitude": -74.044176
  },
  {
    "id": 4,
    "perfil":"assets/images/avatar-1.jpg",
    "name": "Jacob 2",
    "correo": "Jacob2@domain.com",
    "idEspecialidad": 3,
    "especialidad": "Cardiología",
    "office": "Chia",
    "age": 30,
    "telefono": "+419996156222",
    "date":"11/09/2014",
    "latitude": 4.860715,
    "longitude": -74.056505
  }

]
