[
  {
    "id": 1,
    "name": "2 km",
    "value": 2
  },
  {
    "id": 2,
    "name": "5 km",
    "value": 5
  },
  {
    "id": 3,
    "name": "10 km",
    "value": 10
  },{
  "id": 4,
  "name": "20 km",
  "value": 20
  },{
  "id": 5,
  "name": "30 km",
  "value": 30
}
]