-- Merging decision tree log ---
provider#de.appplant.cordova.emailcomposer.Provider
INJECTED from /Users/Andres/Desktop/practicas/PruebaMovil/platforms/android/app/src/main/AndroidManifest.xml:12:9-14:20
	android:grantUriPermissions
		ADDED from /Users/Andres/Desktop/practicas/PruebaMovil/platforms/android/app/src/main/AndroidManifest.xml:12:106-140
	android:authorities
		INJECTED from /Users/Andres/Desktop/practicas/PruebaMovil/platforms/android/app/src/main/AndroidManifest.xml
		ADDED from /Users/Andres/Desktop/practicas/PruebaMovil/platforms/android/app/src/main/AndroidManifest.xml:12:19-80
	android:exported
		ADDED from /Users/Andres/Desktop/practicas/PruebaMovil/platforms/android/app/src/main/AndroidManifest.xml:12:81-105
	android:name
		ADDED from /Users/Andres/Desktop/practicas/PruebaMovil/platforms/android/app/src/main/AndroidManifest.xml:12:141-198
manifest
ADDED from /Users/Andres/Desktop/practicas/PruebaMovil/platforms/android/app/src/main/AndroidManifest.xml:2:1-17:12
INJECTED from /Users/Andres/Desktop/practicas/PruebaMovil/platforms/android/app/src/main/AndroidManifest.xml:2:1-17:12
INJECTED from /Users/Andres/Desktop/practicas/PruebaMovil/platforms/android/app/src/main/AndroidManifest.xml:2:1-17:12
INJECTED from /Users/Andres/Desktop/practicas/PruebaMovil/platforms/android/app/src/main/AndroidManifest.xml:2:1-17:12
MERGED from [com.android.support:support-v4:27.1.1] /Users/Andres/.gradle/caches/transforms-1/files-1.1/support-v4-27.1.1.aar/9282fe6a22c13e0dcdb3236a6723cd8c/AndroidManifest.xml:17:1-22:12
MERGED from [com.android.support:support-media-compat:27.1.1] /Users/Andres/.gradle/caches/transforms-1/files-1.1/support-media-compat-27.1.1.aar/43267dc9314de271cbd319e548b1a28c/AndroidManifest.xml:17:1-22:12
MERGED from [com.android.support:support-fragment:27.1.1] /Users/Andres/.gradle/caches/transforms-1/files-1.1/support-fragment-27.1.1.aar/bfc3963d0674abd5ace49d919a0b69e2/AndroidManifest.xml:17:1-22:12
MERGED from [com.android.support:support-core-ui:27.1.1] /Users/Andres/.gradle/caches/transforms-1/files-1.1/support-core-ui-27.1.1.aar/88c5ef6b7dbacb09bda62ad5de134934/AndroidManifest.xml:17:1-22:12
MERGED from [com.android.support:support-core-utils:27.1.1] /Users/Andres/.gradle/caches/transforms-1/files-1.1/support-core-utils-27.1.1.aar/6317360e017d2af7a12c49d470404c97/AndroidManifest.xml:17:1-22:12
MERGED from [com.android.support:support-compat:27.1.1] /Users/Andres/.gradle/caches/transforms-1/files-1.1/support-compat-27.1.1.aar/6f227f2276618ae5a2aa88028963c63c/AndroidManifest.xml:17:1-22:12
MERGED from [:CordovaLib] /Users/Andres/Desktop/practicas/PruebaMovil/platforms/android/CordovaLib/build/intermediates/manifests/full/debug/AndroidManifest.xml:20:1-27:12
MERGED from [android.arch.lifecycle:runtime:1.1.0] /Users/Andres/.gradle/caches/transforms-1/files-1.1/runtime-1.1.0.aar/6abe7336e057980766ac8bab8fef2ab6/AndroidManifest.xml:17:1-22:12
MERGED from [android.arch.lifecycle:livedata-core:1.1.0] /Users/Andres/.gradle/caches/transforms-1/files-1.1/livedata-core-1.1.0.aar/e45ff3f0f3e3d57031c8544154af0433/AndroidManifest.xml:17:1-22:12
MERGED from [android.arch.lifecycle:viewmodel:1.1.0] /Users/Andres/.gradle/caches/transforms-1/files-1.1/viewmodel-1.1.0.aar/e537d587120f8246f62518992323478e/AndroidManifest.xml:17:1-22:12
MERGED from [android.arch.core:runtime:1.1.0] /Users/Andres/.gradle/caches/transforms-1/files-1.1/runtime-1.1.0.aar/c628f5539535b3577938dc3dd6cc1dd0/AndroidManifest.xml:17:1-22:12
INJECTED from /Users/Andres/Desktop/practicas/PruebaMovil/platforms/android/app/src/main/AndroidManifest.xml:2:1-17:12
INJECTED from /Users/Andres/Desktop/practicas/PruebaMovil/platforms/android/app/src/main/AndroidManifest.xml:2:1-17:12
INJECTED from /Users/Andres/Desktop/practicas/PruebaMovil/platforms/android/app/src/main/AndroidManifest.xml:2:1-17:12
	package
		ADDED from /Users/Andres/Desktop/practicas/PruebaMovil/platforms/android/app/src/main/AndroidManifest.xml:2:98-118
		INJECTED from /Users/Andres/Desktop/practicas/PruebaMovil/platforms/android/app/src/main/AndroidManifest.xml
		INJECTED from /Users/Andres/Desktop/practicas/PruebaMovil/platforms/android/app/src/main/AndroidManifest.xml
	android:versionName
		ADDED from /Users/Andres/Desktop/practicas/PruebaMovil/platforms/android/app/src/main/AndroidManifest.xml:2:70-97
		INJECTED from /Users/Andres/Desktop/practicas/PruebaMovil/platforms/android/app/src/main/AndroidManifest.xml
		INJECTED from /Users/Andres/Desktop/practicas/PruebaMovil/platforms/android/app/src/main/AndroidManifest.xml
	android:hardwareAccelerated
		ADDED from /Users/Andres/Desktop/practicas/PruebaMovil/platforms/android/app/src/main/AndroidManifest.xml:2:11-45
	xmlns:android
		ADDED from /Users/Andres/Desktop/practicas/PruebaMovil/platforms/android/app/src/main/AndroidManifest.xml:2:119-177
	android:versionCode
		ADDED from /Users/Andres/Desktop/practicas/PruebaMovil/platforms/android/app/src/main/AndroidManifest.xml:2:46-69
		INJECTED from /Users/Andres/Desktop/practicas/PruebaMovil/platforms/android/app/src/main/AndroidManifest.xml
		INJECTED from /Users/Andres/Desktop/practicas/PruebaMovil/platforms/android/app/src/main/AndroidManifest.xml
supports-screens
ADDED from /Users/Andres/Desktop/practicas/PruebaMovil/platforms/android/app/src/main/AndroidManifest.xml:3:5-191
	android:largeScreens
		ADDED from /Users/Andres/Desktop/practicas/PruebaMovil/platforms/android/app/src/main/AndroidManifest.xml:3:49-76
	android:smallScreens
		ADDED from /Users/Andres/Desktop/practicas/PruebaMovil/platforms/android/app/src/main/AndroidManifest.xml:3:132-159
	android:normalScreens
		ADDED from /Users/Andres/Desktop/practicas/PruebaMovil/platforms/android/app/src/main/AndroidManifest.xml:3:77-105
	android:xlargeScreens
		ADDED from /Users/Andres/Desktop/practicas/PruebaMovil/platforms/android/app/src/main/AndroidManifest.xml:3:160-188
	android:resizeable
		ADDED from /Users/Andres/Desktop/practicas/PruebaMovil/platforms/android/app/src/main/AndroidManifest.xml:3:106-131
	android:anyDensity
		ADDED from /Users/Andres/Desktop/practicas/PruebaMovil/platforms/android/app/src/main/AndroidManifest.xml:3:23-48
uses-permission#android.permission.INTERNET
ADDED from /Users/Andres/Desktop/practicas/PruebaMovil/platforms/android/app/src/main/AndroidManifest.xml:4:5-67
	android:name
		ADDED from /Users/Andres/Desktop/practicas/PruebaMovil/platforms/android/app/src/main/AndroidManifest.xml:4:22-64
application
ADDED from /Users/Andres/Desktop/practicas/PruebaMovil/platforms/android/app/src/main/AndroidManifest.xml:5:5-15:19
	android:supportsRtl
		ADDED from /Users/Andres/Desktop/practicas/PruebaMovil/platforms/android/app/src/main/AndroidManifest.xml:5:175-201
	android:label
		ADDED from /Users/Andres/Desktop/practicas/PruebaMovil/platforms/android/app/src/main/AndroidManifest.xml:5:81-113
	android:hardwareAccelerated
		ADDED from /Users/Andres/Desktop/practicas/PruebaMovil/platforms/android/app/src/main/AndroidManifest.xml:5:18-52
	android:icon
		ADDED from /Users/Andres/Desktop/practicas/PruebaMovil/platforms/android/app/src/main/AndroidManifest.xml:5:53-80
	android:networkSecurityConfig
		ADDED from /Users/Andres/Desktop/practicas/PruebaMovil/platforms/android/app/src/main/AndroidManifest.xml:5:114-174
activity#com.prueba.MainActivity
ADDED from /Users/Andres/Desktop/practicas/PruebaMovil/platforms/android/app/src/main/AndroidManifest.xml:6:9-11:20
	android:screenOrientation
		ADDED from /Users/Andres/Desktop/practicas/PruebaMovil/platforms/android/app/src/main/AndroidManifest.xml:6:194-230
	android:label
		ADDED from /Users/Andres/Desktop/practicas/PruebaMovil/platforms/android/app/src/main/AndroidManifest.xml:6:97-134
	android:launchMode
		ADDED from /Users/Andres/Desktop/practicas/PruebaMovil/platforms/android/app/src/main/AndroidManifest.xml:6:135-165
	android:windowSoftInputMode
		ADDED from /Users/Andres/Desktop/practicas/PruebaMovil/platforms/android/app/src/main/AndroidManifest.xml:6:294-336
	android:configChanges
		ADDED from /Users/Andres/Desktop/practicas/PruebaMovil/platforms/android/app/src/main/AndroidManifest.xml:6:19-96
	android:theme
		ADDED from /Users/Andres/Desktop/practicas/PruebaMovil/platforms/android/app/src/main/AndroidManifest.xml:6:231-293
	android:name
		ADDED from /Users/Andres/Desktop/practicas/PruebaMovil/platforms/android/app/src/main/AndroidManifest.xml:6:166-193
intent-filter#android.intent.action.MAIN+android.intent.category.LAUNCHER
ADDED from /Users/Andres/Desktop/practicas/PruebaMovil/platforms/android/app/src/main/AndroidManifest.xml:7:13-10:29
	android:label
		ADDED from /Users/Andres/Desktop/practicas/PruebaMovil/platforms/android/app/src/main/AndroidManifest.xml:7:28-65
action#android.intent.action.MAIN
ADDED from /Users/Andres/Desktop/practicas/PruebaMovil/platforms/android/app/src/main/AndroidManifest.xml:8:17-69
	android:name
		ADDED from /Users/Andres/Desktop/practicas/PruebaMovil/platforms/android/app/src/main/AndroidManifest.xml:8:25-66
category#android.intent.category.LAUNCHER
ADDED from /Users/Andres/Desktop/practicas/PruebaMovil/platforms/android/app/src/main/AndroidManifest.xml:9:17-77
	android:name
		ADDED from /Users/Andres/Desktop/practicas/PruebaMovil/platforms/android/app/src/main/AndroidManifest.xml:9:27-74
uses-sdk
ADDED from /Users/Andres/Desktop/practicas/PruebaMovil/platforms/android/app/src/main/AndroidManifest.xml:16:5-74
INJECTED from /Users/Andres/Desktop/practicas/PruebaMovil/platforms/android/app/src/main/AndroidManifest.xml:16:5-74
MERGED from [com.android.support:support-v4:27.1.1] /Users/Andres/.gradle/caches/transforms-1/files-1.1/support-v4-27.1.1.aar/9282fe6a22c13e0dcdb3236a6723cd8c/AndroidManifest.xml:20:5-44
MERGED from [com.android.support:support-v4:27.1.1] /Users/Andres/.gradle/caches/transforms-1/files-1.1/support-v4-27.1.1.aar/9282fe6a22c13e0dcdb3236a6723cd8c/AndroidManifest.xml:20:5-44
MERGED from [com.android.support:support-media-compat:27.1.1] /Users/Andres/.gradle/caches/transforms-1/files-1.1/support-media-compat-27.1.1.aar/43267dc9314de271cbd319e548b1a28c/AndroidManifest.xml:20:5-44
MERGED from [com.android.support:support-media-compat:27.1.1] /Users/Andres/.gradle/caches/transforms-1/files-1.1/support-media-compat-27.1.1.aar/43267dc9314de271cbd319e548b1a28c/AndroidManifest.xml:20:5-44
MERGED from [com.android.support:support-fragment:27.1.1] /Users/Andres/.gradle/caches/transforms-1/files-1.1/support-fragment-27.1.1.aar/bfc3963d0674abd5ace49d919a0b69e2/AndroidManifest.xml:20:5-44
MERGED from [com.android.support:support-fragment:27.1.1] /Users/Andres/.gradle/caches/transforms-1/files-1.1/support-fragment-27.1.1.aar/bfc3963d0674abd5ace49d919a0b69e2/AndroidManifest.xml:20:5-44
MERGED from [com.android.support:support-core-ui:27.1.1] /Users/Andres/.gradle/caches/transforms-1/files-1.1/support-core-ui-27.1.1.aar/88c5ef6b7dbacb09bda62ad5de134934/AndroidManifest.xml:20:5-44
MERGED from [com.android.support:support-core-ui:27.1.1] /Users/Andres/.gradle/caches/transforms-1/files-1.1/support-core-ui-27.1.1.aar/88c5ef6b7dbacb09bda62ad5de134934/AndroidManifest.xml:20:5-44
MERGED from [com.android.support:support-core-utils:27.1.1] /Users/Andres/.gradle/caches/transforms-1/files-1.1/support-core-utils-27.1.1.aar/6317360e017d2af7a12c49d470404c97/AndroidManifest.xml:20:5-44
MERGED from [com.android.support:support-core-utils:27.1.1] /Users/Andres/.gradle/caches/transforms-1/files-1.1/support-core-utils-27.1.1.aar/6317360e017d2af7a12c49d470404c97/AndroidManifest.xml:20:5-44
MERGED from [com.android.support:support-compat:27.1.1] /Users/Andres/.gradle/caches/transforms-1/files-1.1/support-compat-27.1.1.aar/6f227f2276618ae5a2aa88028963c63c/AndroidManifest.xml:20:5-44
MERGED from [com.android.support:support-compat:27.1.1] /Users/Andres/.gradle/caches/transforms-1/files-1.1/support-compat-27.1.1.aar/6f227f2276618ae5a2aa88028963c63c/AndroidManifest.xml:20:5-44
MERGED from [:CordovaLib] /Users/Andres/Desktop/practicas/PruebaMovil/platforms/android/CordovaLib/build/intermediates/manifests/full/debug/AndroidManifest.xml:25:5-44
MERGED from [:CordovaLib] /Users/Andres/Desktop/practicas/PruebaMovil/platforms/android/CordovaLib/build/intermediates/manifests/full/debug/AndroidManifest.xml:25:5-44
MERGED from [android.arch.lifecycle:runtime:1.1.0] /Users/Andres/.gradle/caches/transforms-1/files-1.1/runtime-1.1.0.aar/6abe7336e057980766ac8bab8fef2ab6/AndroidManifest.xml:20:5-44
MERGED from [android.arch.lifecycle:runtime:1.1.0] /Users/Andres/.gradle/caches/transforms-1/files-1.1/runtime-1.1.0.aar/6abe7336e057980766ac8bab8fef2ab6/AndroidManifest.xml:20:5-44
MERGED from [android.arch.lifecycle:livedata-core:1.1.0] /Users/Andres/.gradle/caches/transforms-1/files-1.1/livedata-core-1.1.0.aar/e45ff3f0f3e3d57031c8544154af0433/AndroidManifest.xml:20:5-44
MERGED from [android.arch.lifecycle:livedata-core:1.1.0] /Users/Andres/.gradle/caches/transforms-1/files-1.1/livedata-core-1.1.0.aar/e45ff3f0f3e3d57031c8544154af0433/AndroidManifest.xml:20:5-44
MERGED from [android.arch.lifecycle:viewmodel:1.1.0] /Users/Andres/.gradle/caches/transforms-1/files-1.1/viewmodel-1.1.0.aar/e537d587120f8246f62518992323478e/AndroidManifest.xml:20:5-44
MERGED from [android.arch.lifecycle:viewmodel:1.1.0] /Users/Andres/.gradle/caches/transforms-1/files-1.1/viewmodel-1.1.0.aar/e537d587120f8246f62518992323478e/AndroidManifest.xml:20:5-44
MERGED from [android.arch.core:runtime:1.1.0] /Users/Andres/.gradle/caches/transforms-1/files-1.1/runtime-1.1.0.aar/c628f5539535b3577938dc3dd6cc1dd0/AndroidManifest.xml:20:5-44
MERGED from [android.arch.core:runtime:1.1.0] /Users/Andres/.gradle/caches/transforms-1/files-1.1/runtime-1.1.0.aar/c628f5539535b3577938dc3dd6cc1dd0/AndroidManifest.xml:20:5-44
INJECTED from /Users/Andres/Desktop/practicas/PruebaMovil/platforms/android/app/src/main/AndroidManifest.xml:16:5-74
	android:targetSdkVersion
		ADDED from /Users/Andres/Desktop/practicas/PruebaMovil/platforms/android/app/src/main/AndroidManifest.xml:16:42-71
	android:minSdkVersion
		ADDED from /Users/Andres/Desktop/practicas/PruebaMovil/platforms/android/app/src/main/AndroidManifest.xml:16:15-41
		INJECTED from /Users/Andres/Desktop/practicas/PruebaMovil/platforms/android/app/src/main/AndroidManifest.xml
		INJECTED from /Users/Andres/Desktop/practicas/PruebaMovil/platforms/android/app/src/main/AndroidManifest.xml
meta-data#android.support.FILE_PROVIDER_PATHS
ADDED from /Users/Andres/Desktop/practicas/PruebaMovil/platforms/android/app/src/main/AndroidManifest.xml:13:13-130
	android:resource
		ADDED from /Users/Andres/Desktop/practicas/PruebaMovil/platforms/android/app/src/main/AndroidManifest.xml:13:75-127
	android:name
		ADDED from /Users/Andres/Desktop/practicas/PruebaMovil/platforms/android/app/src/main/AndroidManifest.xml:13:24-74
